{"count":10,"start":10,"per_page":10,"page":2,"time_ms":2,"total_count":662,"total_pages":67,"videos":[{"id":"L5P3pN418Od","title":"Teen Model Exhibitionist Gets Fucked Everywhere By Her Dominating Sug","keywords":"Anal Big Dick Blonde Blowjob Closed Captions HD Porn Popular With Women Pornstar Public Teen (18+) vixen teenager ass fuck standing doggystyle riding reverse cowgirl pussy licking hairy pussy garden ass to mouth atm doggystyle prone bone facial Vixen, tee, Teen Model Exhibitionist Gets Fucked Everywhere By Her Dominating Sug","views":315,"rate":"5.00","url":"https://www.eporner.com/video-L5P3pN418Od/teen-model-exhibitionist-gets-fucked-everywhere-by-her-dominating-sug/","added":"2024-02-29 10:46:16","length_sec":698,"length_min":"11:38","embed":"https://www.eporner.com/embed/L5P3pN418Od/","default_thumb":{"size":"big","width":640,"height":360,"src":"https://static-ca-cdn.eporner.com/thumbs/static4/1/10/101/10186894/6_360.jpg"},"thumbs":[{"size":"big","width":640,"height":360,"src":"https://static-ca-cdn.eporner.com/thumbs/static4/1/10/101/10186894/1_360.jpg"},{"size":"big","width":640,"height":360,"src":"https://static-ca-cdn.eporner.com/thumbs/static4/1/10/101/10186894/2_360.jpg"},{"size":"big","width":640,"height":360,"src":"https://static-ca-cdn.eporner.com/thumbs/static4/1/10/101/10186894/3_360.jpg"},{"size":"big","width":640,"height":360,"src":"https://static-ca-cdn.eporner.com/thumbs/static4/1/10/101/10186894/4_360.jpg"},{"size":"big","width":640,"height":360,"src":"https://static-ca-cdn.eporner.com/thumbs/static4/1/10/101/10186894/5_360.jpg"},{"size":"big","width":640,"height":360,"src":"https://static-ca-cdn.eporner.com/thumbs/static4/1/10/101/10186894/6_360.jpg"},{"size":"big","width":640,"height":360,"src":"https://static-ca-cdn.eporner.com/thumbs/static4/1/10/101/10186894/7_360.jpg"},{"size":"big","width":640,"height":360,"src":"https://static-ca-cdn.eporner.com/thumbs/static4/1/10/101/10186894/8_360.jpg"},{"size":"big","width":640,"height":360,"src":"https://static-ca-cdn.eporner.com/thumbs/static4/1/10/101/10186894/9_360.jpg"},{"size":"big","width":640,"height":360,"src":"https://static-ca-cdn.eporner.com/thumbs/static4/1/10/101/10186894/10_360.jpg"},{"size":"big","width":640,"height":360,"src":"https://static-ca-cdn.eporner.com/thumbs/static4/1/10/101/10186894/11_360.jpg"},{"size":"big","width":640,"height":360,"src":"https://static-ca-cdn.eporner.com/thumbs/static4/1/10/101/10186894/12_360.jpg"},{"size":"big","width":640,"height":360,"src":"https://static-ca-cdn.eporner.com/thumbs/static4/1/10/101/10186894/13_360.jpg"},{"size":"big","width":640,"height":360,"src":"https://static-ca-cdn.eporner.com/thumbs/static4/1/10/101/10186894/14_360.jpg"},{"size":"big","width":640,"height":360,"src":"https://static-ca-cdn.eporner.com/thumbs/static4/1/10/101/10186894/15_360.jpg"}]},{"id":"Mjwo0Ko9mG0","title":"Popular TikTok Teen","keywords":"amateur, big ass, big tits, striptease, lingerie, teens, pov porn, homemade, Popular TikTok Teen","views":127987,"rate":"3.72","url":"https://www.eporner.com/video-Mjwo0Ko9mG0/popular-tiktok-teen/","added":"2024-02-28 15:46:26","length_sec":2127,"length_min":"35:27","embed":"https://www.eporner.com/embed/Mjwo0Ko9mG0/","default_thumb":{"size":"big","width":640,"height":360,"src":"https://static-ca-cdn.eporner.com/thumbs/static4/1/10/101/10174437/13_360.jpg"},"thumbs":[{"size":"big","width":640,"height":360,"src":"https://static-ca-cdn.eporner.com/thumbs/static4/1/10/101/10174437/1_360.jpg"},{"size":"big","width":640,"height":360,"src":"https://static-ca-cdn.eporner.com/thumbs/static4/1/10/101/10174437/2_360.jpg"},{"size":"big","width":640,"height":360,"src":"https://static-ca-cdn.eporner.com/thumbs/static4/1/10/101/10174437/3_360.jpg"},{"size":"big","width":640,"height":360,"src":"https://static-ca-cdn.eporner.com/thumbs/static4/1/10/101/10174437/4_360.jpg"},{"size":"big","width":640,"height":360,"src":"https://static-ca-cdn.eporner.com/thumbs/static4/1/10/101/10174437/5_360.jpg"},{"size":"big","width":640,"height":360,"src":"https://static-ca-cdn.eporner.com/thumbs/static4/1/10/101/10174437/6_360.jpg"},{"size":"big","width":640,"height":360,"src":"https://static-ca-cdn.eporner.com/thumbs/static4/1/10/101/10174437/7_360.jpg"},{"size":"big","width":640,"height":360,"src":"https://static-ca-cdn.eporner.com/thumbs/static4/1/10/101/10174437/8_360.jpg"},{"size":"big","width":640,"height":360,"src":"https://static-ca-cdn.eporner.com/thumbs/static4/1/10/101/10174437/9_360.jpg"},{"size":"big","width":640,"height":360,"src":"https://static-ca-cdn.eporner.com/thumbs/static4/1/10/101/10174437/10_360.jpg"},{"size":"big","width":640,"height":360,"src":"https://static-ca-cdn.eporner.com/thumbs/static4/1/10/101/10174437/11_360.jpg"},{"size":"big","width":640,"height":360,"src":"https://static-ca-cdn.eporner.com/thumbs/static4/1/10/101/10174437/12_360.jpg"},{"size":"big","width":640,"height":360,"src":"https://static-ca-cdn.eporner.com/thumbs/static4/1/10/101/10174437/13_360.jpg"},{"size":"big","width":640,"height":360,"src":"https://static-ca-cdn.eporner.com/thumbs/static4/1/10/101/10174437/14_360.jpg"},{"size":"big","width":640,"height":360,"src":"https://static-ca-cdn.eporner.com/thumbs/static4/1/10/101/10174437/15_360.jpg"}]},{"id":"BPLgPgtqtWi","title":"Amy Faye, Popular At School","keywords":"TeenTugs.com, Amy Faye, Popular At School","views":101,"rate":"0.00","url":"https://www.eporner.com/video-BPLgPgtqtWi/amy-faye-popular-at-school/","added":"2024-02-28 14:51:07","length_sec":308,"length_min":"5:08","embed":"https://www.eporner.com/embed/BPLgPgtqtWi/","default_thumb":{"size":"big","width":480,"height":360,"src":"https://static-ca-cdn.eporner.com/thumbs/static4/1/10/101/10180049/7_360.jpg"},"thumbs":[{"size":"big","width":480,"height":360,"src":"https://static-ca-cdn.eporner.com/thumbs/static4/1/10/101/10180049/1_360.jpg"},{"size":"big","width":480,"height":360,"src":"https://static-ca-cdn.eporner.com/thumbs/static4/1/10/101/10180049/2_360.jpg"},{"size":"big","width":480,"height":360,"src":"https://static-ca-cdn.eporner.com/thumbs/static4/1/10/101/10180049/3_360.jpg"},{"size":"big","width":480,"height":360,"src":"https://static-ca-cdn.eporner.com/thumbs/static4/1/10/101/10180049/4_360.jpg"},{"size":"big","width":480,"height":360,"src":"https://static-ca-cdn.eporner.com/thumbs/static4/1/10/101/10180049/5_360.jpg"},{"size":"big","width":480,"height":360,"src":"https://static-ca-cdn.eporner.com/thumbs/static4/1/10/101/10180049/6_360.jpg"},{"size":"big","width":480,"height":360,"src":"https://static-ca-cdn.eporner.com/thumbs/static4/1/10/101/10180049/7_360.jpg"},{"size":"big","width":480,"height":360,"src":"https://static-ca-cdn.eporner.com/thumbs/static4/1/10/101/10180049/8_360.jpg"},{"size":"big","width":480,"height":360,"src":"https://static-ca-cdn.eporner.com/thumbs/static4/1/10/101/10180049/9_360.jpg"},{"size":"big","width":480,"height":360,"src":"https://static-ca-cdn.eporner.com/thumbs/static4/1/10/101/10180049/10_360.jpg"},{"size":"big","width":480,"height":360,"src":"https://static-ca-cdn.eporner.com/thumbs/static4/1/10/101/10180049/11_360.jpg"},{"size":"big","width":480,"height":360,"src":"https://static-ca-cdn.eporner.com/thumbs/static4/1/10/101/10180049/12_360.jpg"},{"size":"big","width":480,"height":360,"src":"https://static-ca-cdn.eporner.com/thumbs/static4/1/10/101/10180049/13_360.jpg"},{"size":"big","width":480,"height":360,"src":"https://static-ca-cdn.eporner.com/thumbs/static4/1/10/101/10180049/14_360.jpg"},{"size":"big","width":480,"height":360,"src":"https://static-ca-cdn.eporner.com/thumbs/static4/1/10/101/10180049/15_360.jpg"}]},{"id":"MbZduEVLt9q","title":"Sonny Mc Kinley Wants To Get Pregnant And, Since She Has No Boyfriend, She Knows The Right Place To Go. This Sexy Blonde Visits The Most Popular Sperm Clinic In Town And Asks The Doctor To Fuck Her Right Here, Right Now. This Petite Babe Doesn't Take ","keywords":"BreedMe.com, Sonny Mc Kinley wants to get pregnant and, since she has no boyfriend, she knows the right place to go. This sexy blonde visits the most popular sperm clinic in town and asks the doctor to fuck her right here, right now. This petite babe doesn't take , blowjob, big tits, threesome","views":4648,"rate":"4.29","url":"https://www.eporner.com/video-MbZduEVLt9q/sonny-mc-kinley-wants-to-get-pregnant-and-since-she-has-no-boyfriend-she-knows-the-right-place-to-go-this-sexy-blonde-visits-the-most-popular-sperm-clinic-in-town-and-asks-the-doctor-to-fuck-her-right-here-right-now-this-petite-babe-doesn-t-take/","added":"2024-02-26 21:39:28","length_sec":381,"length_min":"6:21","embed":"https://www.eporner.com/embed/MbZduEVLt9q/","default_thumb":{"size":"big","width":640,"height":360,"src":"https://static-ca-cdn.eporner.com/thumbs/static4/1/10/101/10164454/8_360.jpg"},"thumbs":[{"size":"big","width":640,"height":360,"src":"https://static-ca-cdn.eporner.com/thumbs/static4/1/10/101/10164454/1_360.jpg"},{"size":"big","width":640,"height":360,"src":"https://static-ca-cdn.eporner.com/thumbs/static4/1/10/101/10164454/2_360.jpg"},{"size":"big","width":640,"height":360,"src":"https://static-ca-cdn.eporner.com/thumbs/static4/1/10/101/10164454/3_360.jpg"},{"size":"big","width":640,"height":360,"src":"https://static-ca-cdn.eporner.com/thumbs/static4/1/10/101/10164454/4_360.jpg"},{"size":"big","width":640,"height":360,"src":"https://static-ca-cdn.eporner.com/thumbs/static4/1/10/101/10164454/5_360.jpg"},{"size":"big","width":640,"height":360,"src":"https://static-ca-cdn.eporner.com/thumbs/static4/1/10/101/10164454/6_360.jpg"},{"size":"big","width":640,"height":360,"src":"https://static-ca-cdn.eporner.com/thumbs/static4/1/10/101/10164454/7_360.jpg"},{"size":"big","width":640,"height":360,"src":"https://static-ca-cdn.eporner.com/thumbs/static4/1/10/101/10164454/8_360.jpg"},{"size":"big","width":640,"height":360,"src":"https://static-ca-cdn.eporner.com/thumbs/static4/1/10/101/10164454/9_360.jpg"},{"size":"big","width":640,"height":360,"src":"https://static-ca-cdn.eporner.com/thumbs/static4/1/10/101/10164454/10_360.jpg"},{"size":"big","width":640,"height":360,"src":"https://static-ca-cdn.eporner.com/thumbs/static4/1/10/101/10164454/11_360.jpg"},{"size":"big","width":640,"height":360,"src":"https://static-ca-cdn.eporner.com/thumbs/static4/1/10/101/10164454/12_360.jpg"},{"size":"big","width":640,"height":360,"src":"https://static-ca-cdn.eporner.com/thumbs/static4/1/10/101/10164454/13_360.jpg"},{"size":"big","width":640,"height":360,"src":"https://static-ca-cdn.eporner.com/thumbs/static4/1/10/101/10164454/14_360.jpg"},{"size":"big","width":640,"height":360,"src":"https://static-ca-cdn.eporner.com/thumbs/static4/1/10/101/10164454/15_360.jpg"}]},{"id":"TlT4CXL0jca","title":"My gf's parents weren't home so we filmed a sex tape on their bed","keywords":"Butt,   Big boobs,   Big cock,   Big dick,   Bbc,   Kissing,   Missionary,   Cowgirl,   Doggystyle,   Phat ass,   Passionate sex,   Romantic love making,   Popular with women,   Muscular ass,   Moaning,, blowjob, asian porn, bondage, homemade, hardcore, l, My gf's parents weren't home so we filmed a sex tape on their bed","views":296,"rate":"0.00","url":"https://www.eporner.com/video-TlT4CXL0jca/my-gf-s-parents-weren-t-home-so-we-filmed-a-sex-tape-on-their-bed/","added":"2024-02-26 17:44:41","length_sec":2295,"length_min":"38:15","embed":"https://www.eporner.com/embed/TlT4CXL0jca/","default_thumb":{"size":"big","width":640,"height":360,"src":"https://static-ca-cdn.eporner.com/thumbs/static4/1/10/101/10163081/5_360.jpg"},"thumbs":[{"size":"big","width":640,"height":360,"src":"https://static-ca-cdn.eporner.com/thumbs/static4/1/10/101/10163081/1_360.jpg"},{"size":"big","width":640,"height":360,"src":"https://static-ca-cdn.eporner.com/thumbs/static4/1/10/101/10163081/2_360.jpg"},{"size":"big","width":640,"height":360,"src":"https://static-ca-cdn.eporner.com/thumbs/static4/1/10/101/10163081/3_360.jpg"},{"size":"big","width":640,"height":360,"src":"https://static-ca-cdn.eporner.com/thumbs/static4/1/10/101/10163081/4_360.jpg"},{"size":"big","width":640,"height":360,"src":"https://static-ca-cdn.eporner.com/thumbs/static4/1/10/101/10163081/5_360.jpg"},{"size":"big","width":640,"height":360,"src":"https://static-ca-cdn.eporner.com/thumbs/static4/1/10/101/10163081/6_360.jpg"},{"size":"big","width":640,"height":360,"src":"https://static-ca-cdn.eporner.com/thumbs/static4/1/10/101/10163081/7_360.jpg"},{"size":"big","width":640,"height":360,"src":"https://static-ca-cdn.eporner.com/thumbs/static4/1/10/101/10163081/8_360.jpg"},{"size":"big","width":640,"height":360,"src":"https://static-ca-cdn.eporner.com/thumbs/static4/1/10/101/10163081/9_360.jpg"},{"size":"big","width":640,"height":360,"src":"https://static-ca-cdn.eporner.com/thumbs/static4/1/10/101/10163081/10_360.jpg"},{"size":"big","width":640,"height":360,"src":"https://static-ca-cdn.eporner.com/thumbs/static4/1/10/101/10163081/11_360.jpg"},{"size":"big","width":640,"height":360,"src":"https://static-ca-cdn.eporner.com/thumbs/static4/1/10/101/10163081/12_360.jpg"},{"size":"big","width":640,"height":360,"src":"https://static-ca-cdn.eporner.com/thumbs/static4/1/10/101/10163081/13_360.jpg"},{"size":"big","width":640,"height":360,"src":"https://static-ca-cdn.eporner.com/thumbs/static4/1/10/101/10163081/14_360.jpg"},{"size":"big","width":640,"height":360,"src":"https://static-ca-cdn.eporner.com/thumbs/static4/1/10/101/10163081/15_360.jpg"}]},{"id":"PM5vgZZnevq","title":"Ricky wanted to make love to Payton's perfect body with his big dick","keywords":"Butt,   Big boobs,   Big cock,   Big dick,   Bbc,   Kissing,   Missionary,   Cowgirl,   Doggystyle,   Phat ass,   Passionate sex,   Romantic love making,   Popular with women,   Muscular ass,   Moaning,, milf, pornstar, redhead, hardcore, blowjob, bukkake, Ricky wanted to make love to Payton's perfect body with his big dick","views":805,"rate":"5.00","url":"https://www.eporner.com/video-PM5vgZZnevq/ricky-wanted-to-make-love-to-payton-s-perfect-body-with-his-big-dick/","added":"2024-02-26 17:34:41","length_sec":1277,"length_min":"21:17","embed":"https://www.eporner.com/embed/PM5vgZZnevq/","default_thumb":{"size":"big","width":640,"height":360,"src":"https://static-ca-cdn.eporner.com/thumbs/static4/1/10/101/10163019/5_360.jpg"},"thumbs":[{"size":"big","width":640,"height":360,"src":"https://static-ca-cdn.eporner.com/thumbs/static4/1/10/101/10163019/1_360.jpg"},{"size":"big","width":640,"height":360,"src":"https://static-ca-cdn.eporner.com/thumbs/static4/1/10/101/10163019/2_360.jpg"},{"size":"big","width":640,"height":360,"src":"https://static-ca-cdn.eporner.com/thumbs/static4/1/10/101/10163019/3_360.jpg"},{"size":"big","width":640,"height":360,"src":"https://static-ca-cdn.eporner.com/thumbs/static4/1/10/101/10163019/4_360.jpg"},{"size":"big","width":640,"height":360,"src":"https://static-ca-cdn.eporner.com/thumbs/static4/1/10/101/10163019/5_360.jpg"},{"size":"big","width":640,"height":360,"src":"https://static-ca-cdn.eporner.com/thumbs/static4/1/10/101/10163019/6_360.jpg"},{"size":"big","width":640,"height":360,"src":"https://static-ca-cdn.eporner.com/thumbs/static4/1/10/101/10163019/7_360.jpg"},{"size":"big","width":640,"height":360,"src":"https://static-ca-cdn.eporner.com/thumbs/static4/1/10/101/10163019/8_360.jpg"},{"size":"big","width":640,"height":360,"src":"https://static-ca-cdn.eporner.com/thumbs/static4/1/10/101/10163019/9_360.jpg"},{"size":"big","width":640,"height":360,"src":"https://static-ca-cdn.eporner.com/thumbs/static4/1/10/101/10163019/10_360.jpg"},{"size":"big","width":640,"height":360,"src":"https://static-ca-cdn.eporner.com/thumbs/static4/1/10/101/10163019/11_360.jpg"},{"size":"big","width":640,"height":360,"src":"https://static-ca-cdn.eporner.com/thumbs/static4/1/10/101/10163019/12_360.jpg"},{"size":"big","width":640,"height":360,"src":"https://static-ca-cdn.eporner.com/thumbs/static4/1/10/101/10163019/13_360.jpg"},{"size":"big","width":640,"height":360,"src":"https://static-ca-cdn.eporner.com/thumbs/static4/1/10/101/10163019/14_360.jpg"},{"size":"big","width":640,"height":360,"src":"https://static-ca-cdn.eporner.com/thumbs/static4/1/10/101/10163019/15_360.jpg"}]},{"id":"epf9EhkZaes","title":"MTALL-103 It Seems That Female Managers Who Are Popular For Their Big Boobs Will Get Fucked If They Become Regulars. Mei Itsukaichi, A Schoolgirl Who Had A Huge Orgy During Insemination And Creampie In The Boys' Dormit","keywords":"teens, japanese, creampie, asian porn, big tits, MTALL-103 It Seems That Female Managers Who Are Popular For Their Big Boobs Will Get Fucked If They Become Regulars. Mei Itsukaichi, A Schoolgirl Who Had A Huge Orgy During Insemination And Creampie In The Boys' Dormit","views":5333,"rate":"3.75","url":"https://www.eporner.com/video-epf9EhkZaes/mtall-103-it-seems-that-female-managers-who-are-popular-for-their-big-boobs-will-get-fucked-if-they-become-regulars-mei-itsukaichi-a-schoolgirl-who-had-a-huge-orgy-during-insemination-and-creampie-in-the-boys-dormit/","added":"2024-02-24 10:05:27","length_sec":8092,"length_min":"134:52","embed":"https://www.eporner.com/embed/epf9EhkZaes/","default_thumb":{"size":"big","width":640,"height":360,"src":"https://static-ca-cdn.eporner.com/thumbs/static4/1/10/101/10142788/5_360.jpg"},"thumbs":[{"size":"big","width":640,"height":360,"src":"https://static-ca-cdn.eporner.com/thumbs/static4/1/10/101/10142788/1_360.jpg"},{"size":"big","width":640,"height":360,"src":"https://static-ca-cdn.eporner.com/thumbs/static4/1/10/101/10142788/2_360.jpg"},{"size":"big","width":640,"height":360,"src":"https://static-ca-cdn.eporner.com/thumbs/static4/1/10/101/10142788/3_360.jpg"},{"size":"big","width":640,"height":360,"src":"https://static-ca-cdn.eporner.com/thumbs/static4/1/10/101/10142788/4_360.jpg"},{"size":"big","width":640,"height":360,"src":"https://static-ca-cdn.eporner.com/thumbs/static4/1/10/101/10142788/5_360.jpg"},{"size":"big","width":640,"height":360,"src":"https://static-ca-cdn.eporner.com/thumbs/static4/1/10/101/10142788/6_360.jpg"},{"size":"big","width":640,"height":360,"src":"https://static-ca-cdn.eporner.com/thumbs/static4/1/10/101/10142788/7_360.jpg"},{"size":"big","width":640,"height":360,"src":"https://static-ca-cdn.eporner.com/thumbs/static4/1/10/101/10142788/8_360.jpg"},{"size":"big","width":640,"height":360,"src":"https://static-ca-cdn.eporner.com/thumbs/static4/1/10/101/10142788/9_360.jpg"},{"size":"big","width":640,"height":360,"src":"https://static-ca-cdn.eporner.com/thumbs/static4/1/10/101/10142788/10_360.jpg"},{"size":"big","width":640,"height":360,"src":"https://static-ca-cdn.eporner.com/thumbs/static4/1/10/101/10142788/11_360.jpg"},{"size":"big","width":640,"height":360,"src":"https://static-ca-cdn.eporner.com/thumbs/static4/1/10/101/10142788/12_360.jpg"},{"size":"big","width":640,"height":360,"src":"https://static-ca-cdn.eporner.com/thumbs/static4/1/10/101/10142788/13_360.jpg"},{"size":"big","width":640,"height":360,"src":"https://static-ca-cdn.eporner.com/thumbs/static4/1/10/101/10142788/14_360.jpg"},{"size":"big","width":640,"height":360,"src":"https://static-ca-cdn.eporner.com/thumbs/static4/1/10/101/10142788/15_360.jpg"}]},{"id":"fCW5ESJ9m14","title":"Emily Black popular instagram/tiktok girl masturbating","keywords":"emily black, amateur, big tits, anal, big ass, squirt, teens, Emily Black popular instagram/tiktok girl masturbating, Emily Big Ass","views":308,"rate":"5.00","url":"https://www.eporner.com/video-fCW5ESJ9m14/emily-black-popular-instagram-tiktok-girl-masturbating/","added":"2024-02-20 15:06:54","length_sec":445,"length_min":"7:25","embed":"https://www.eporner.com/embed/fCW5ESJ9m14/","default_thumb":{"size":"big","width":640,"height":360,"src":"https://static-ca-cdn.eporner.com/thumbs/static4/1/10/101/10117117/5_360.jpg"},"thumbs":[{"size":"big","width":640,"height":360,"src":"https://static-ca-cdn.eporner.com/thumbs/static4/1/10/101/10117117/1_360.jpg"},{"size":"big","width":640,"height":360,"src":"https://static-ca-cdn.eporner.com/thumbs/static4/1/10/101/10117117/2_360.jpg"},{"size":"big","width":640,"height":360,"src":"https://static-ca-cdn.eporner.com/thumbs/static4/1/10/101/10117117/3_360.jpg"},{"size":"big","width":640,"height":360,"src":"https://static-ca-cdn.eporner.com/thumbs/static4/1/10/101/10117117/4_360.jpg"},{"size":"big","width":640,"height":360,"src":"https://static-ca-cdn.eporner.com/thumbs/static4/1/10/101/10117117/5_360.jpg"},{"size":"big","width":640,"height":360,"src":"https://static-ca-cdn.eporner.com/thumbs/static4/1/10/101/10117117/6_360.jpg"},{"size":"big","width":640,"height":360,"src":"https://static-ca-cdn.eporner.com/thumbs/static4/1/10/101/10117117/7_360.jpg"},{"size":"big","width":640,"height":360,"src":"https://static-ca-cdn.eporner.com/thumbs/static4/1/10/101/10117117/8_360.jpg"},{"size":"big","width":640,"height":360,"src":"https://static-ca-cdn.eporner.com/thumbs/static4/1/10/101/10117117/9_360.jpg"},{"size":"big","width":640,"height":360,"src":"https://static-ca-cdn.eporner.com/thumbs/static4/1/10/101/10117117/10_360.jpg"},{"size":"big","width":640,"height":360,"src":"https://static-ca-cdn.eporner.com/thumbs/static4/1/10/101/10117117/11_360.jpg"},{"size":"big","width":640,"height":360,"src":"https://static-ca-cdn.eporner.com/thumbs/static4/1/10/101/10117117/12_360.jpg"},{"size":"big","width":640,"height":360,"src":"https://static-ca-cdn.eporner.com/thumbs/static4/1/10/101/10117117/13_360.jpg"},{"size":"big","width":640,"height":360,"src":"https://static-ca-cdn.eporner.com/thumbs/static4/1/10/101/10117117/14_360.jpg"},{"size":"big","width":640,"height":360,"src":"https://static-ca-cdn.eporner.com/thumbs/static4/1/10/101/10117117/15_360.jpg"}]},{"id":"xQihaav45ht","title":"The guy loves watching popular porn videos and masturbating! But her boyfriend will punish her for it! (Julietta)","keywords":",, fetish, masturbation,Blowjob,Chainsmoking,Deep Inhales,DefeatFood FetishRevenge,Roleplay,Smoking Fetish,Smoking GirlVore , The guy loves watching popular porn videos and masturbating! But her boyfriend will punish her for it! (Julietta)","views":87,"rate":"0.00","url":"https://www.eporner.com/video-xQihaav45ht/the-guy-loves-watching-popular-porn-videos-and-masturbating-but-her-boyfriend-will-punish-her-for-it-julietta/","added":"2024-02-20 11:25:11","length_sec":751,"length_min":"12:31","embed":"https://www.eporner.com/embed/xQihaav45ht/","default_thumb":{"size":"big","width":640,"height":360,"src":"https://static-ca-cdn.eporner.com/thumbs/static4/1/10/101/10111933/5_360.jpg"},"thumbs":[{"size":"big","width":640,"height":360,"src":"https://static-ca-cdn.eporner.com/thumbs/static4/1/10/101/10111933/1_360.jpg"},{"size":"big","width":640,"height":360,"src":"https://static-ca-cdn.eporner.com/thumbs/static4/1/10/101/10111933/2_360.jpg"},{"size":"big","width":640,"height":360,"src":"https://static-ca-cdn.eporner.com/thumbs/static4/1/10/101/10111933/3_360.jpg"},{"size":"big","width":640,"height":360,"src":"https://static-ca-cdn.eporner.com/thumbs/static4/1/10/101/10111933/4_360.jpg"},{"size":"big","width":640,"height":360,"src":"https://static-ca-cdn.eporner.com/thumbs/static4/1/10/101/10111933/5_360.jpg"},{"size":"big","width":640,"height":360,"src":"https://static-ca-cdn.eporner.com/thumbs/static4/1/10/101/10111933/6_360.jpg"},{"size":"big","width":640,"height":360,"src":"https://static-ca-cdn.eporner.com/thumbs/static4/1/10/101/10111933/7_360.jpg"},{"size":"big","width":640,"height":360,"src":"https://static-ca-cdn.eporner.com/thumbs/static4/1/10/101/10111933/8_360.jpg"},{"size":"big","width":640,"height":360,"src":"https://static-ca-cdn.eporner.com/thumbs/static4/1/10/101/10111933/9_360.jpg"},{"size":"big","width":640,"height":360,"src":"https://static-ca-cdn.eporner.com/thumbs/static4/1/10/101/10111933/10_360.jpg"},{"size":"big","width":640,"height":360,"src":"https://static-ca-cdn.eporner.com/thumbs/static4/1/10/101/10111933/11_360.jpg"},{"size":"big","width":640,"height":360,"src":"https://static-ca-cdn.eporner.com/thumbs/static4/1/10/101/10111933/12_360.jpg"},{"size":"big","width":640,"height":360,"src":"https://static-ca-cdn.eporner.com/thumbs/static4/1/10/101/10111933/13_360.jpg"},{"size":"big","width":640,"height":360,"src":"https://static-ca-cdn.eporner.com/thumbs/static4/1/10/101/10111933/14_360.jpg"},{"size":"big","width":640,"height":360,"src":"https://static-ca-cdn.eporner.com/thumbs/static4/1/10/101/10111933/15_360.jpg"}]},{"id":"Bxpur5TYidB","title":"Slut Curvy MILF Gets Pounded Hard. Plump Milf Fucks Like a Total Whore","keywords":"bbw,big tits,creampie,hardcore,milf,mature,rough sex,rough,big boobs,chubby,mom,fat mom,fat milf,natural tits,bbw milf,popular with women,amateur milf,thick ass,plump,pawg milf,doggystyle,russian milf,passionate, Slut Curvy MILF Gets Pounded Hard. Plump Milf Fucks Like a Total Whore","views":253,"rate":"0.00","url":"https://www.eporner.com/video-Bxpur5TYidB/slut-curvy-milf-gets-pounded-hard-plump-milf-fucks-like-a-total-whore/","added":"2024-02-20 11:20:37","length_sec":887,"length_min":"14:47","embed":"https://www.eporner.com/embed/Bxpur5TYidB/","default_thumb":{"size":"big","width":640,"height":360,"src":"https://static-ca-cdn.eporner.com/thumbs/static4/1/10/101/10111481/5_360.jpg"},"thumbs":[{"size":"big","width":640,"height":360,"src":"https://static-ca-cdn.eporner.com/thumbs/static4/1/10/101/10111481/1_360.jpg"},{"size":"big","width":640,"height":360,"src":"https://static-ca-cdn.eporner.com/thumbs/static4/1/10/101/10111481/2_360.jpg"},{"size":"big","width":640,"height":360,"src":"https://static-ca-cdn.eporner.com/thumbs/static4/1/10/101/10111481/3_360.jpg"},{"size":"big","width":640,"height":360,"src":"https://static-ca-cdn.eporner.com/thumbs/static4/1/10/101/10111481/4_360.jpg"},{"size":"big","width":640,"height":360,"src":"https://static-ca-cdn.eporner.com/thumbs/static4/1/10/101/10111481/5_360.jpg"},{"size":"big","width":640,"height":360,"src":"https://static-ca-cdn.eporner.com/thumbs/static4/1/10/101/10111481/6_360.jpg"},{"size":"big","width":640,"height":360,"src":"https://static-ca-cdn.eporner.com/thumbs/static4/1/10/101/10111481/7_360.jpg"},{"size":"big","width":640,"height":360,"src":"https://static-ca-cdn.eporner.com/thumbs/static4/1/10/101/10111481/8_360.jpg"},{"size":"big","width":640,"height":360,"src":"https://static-ca-cdn.eporner.com/thumbs/static4/1/10/101/10111481/9_360.jpg"},{"size":"big","width":640,"height":360,"src":"https://static-ca-cdn.eporner.com/thumbs/static4/1/10/101/10111481/10_360.jpg"},{"size":"big","width":640,"height":360,"src":"https://static-ca-cdn.eporner.com/thumbs/static4/1/10/101/10111481/11_360.jpg"},{"size":"big","width":640,"height":360,"src":"https://static-ca-cdn.eporner.com/thumbs/static4/1/10/101/10111481/12_360.jpg"},{"size":"big","width":640,"height":360,"src":"https://static-ca-cdn.eporner.com/thumbs/static4/1/10/101/10111481/13_360.jpg"},{"size":"big","width":640,"height":360,"src":"https://static-ca-cdn.eporner.com/thumbs/static4/1/10/101/10111481/14_360.jpg"},{"size":"big","width":640,"height":360,"src":"https://static-ca-cdn.eporner.com/thumbs/static4/1/10/101/10111481/15_360.jpg"}]}]}


